Revision 3
; Created by bitgen P.15xf at Mon May 20 09:44:31 2013
; Bit lines have the following form:
; <offset> <frame address> <frame offset> <information>
; <information> may be zero or more <kw>=<value> pairs
; Block=<blockname     specifies the block associated with this
;                      memory cell.
;
; Latch=<name>         specifies the latch associated with this memory cell.
;
; Net=<netname>        specifies the user net associated with this
;                      memory cell.
;
; COMPARE=[YES | NO]   specifies whether or not it is appropriate
;                      to compare this bit position between a
;                      "program" and a "readback" bitstream.
;                      If not present the default is NO.
;
; Ram=<ram id>:<bit>   This is used in cases where a CLB function
; Rom=<ram id>:<bit>   generator is used as RAM (or ROM).  <Ram id>
;                      will be either 'F', 'G', or 'M', indicating
;                      that it is part of a single F or G function
;                      generator used as RAM, or as a single RAM
;                      (or ROM) built from both F and G.  <Bit> is
;                      a decimal number.
;
; Info lines have the following form:
; Info <name>=<value>  specifies a bit associated with the LCA
;                      configuration options, and the value of
;                      that bit.  The names of these bits may have
;                      special meaning to software reading the .ll file.
;
Info STARTSEL0=1
Bit  2205232 0x04002400   1392 Block=P68 Latch=O2 Net=cEnter_OBUF
Bit  2205255 0x04002400   1415 Block=P67 Latch=O2 Net=cEne_OBUF
Bit  2205383 0x04002400   1543 Block=P65 Latch=O2 Net=cDelete_OBUF
Bit  2205895 0x04002400   2055 Block=P57 Latch=O2 Net=cNum_OBUF
Bit  2206832 0x04002400   2992 Block=P54 Latch=O2 Net=cVirgul_OBUF
Bit  2211367 0x04020200   1319 Block=P69 Latch=I Net=enter_IBUF
Bit  2211560 0x04020200   1512 Block=P66 Latch=I Net=char_2_IBUF
Bit  2211688 0x04020200   1640 Block=P63 Latch=I Net=char_3_IBUF
Bit  2211727 0x04020200   1679 Block=P62 Latch=I Net=char_6_IBUF
Bit  2211816 0x04020200   1768 Block=P61 Latch=I Net=char_5_IBUF
Bit  2211855 0x04020200   1807 Block=P60 Latch=I Net=char_4_IBUF
Bit  2212072 0x04020200   2024 Block=P58 Latch=I Net=char_1_IBUF
Bit  2213071 0x04020200   3023 Block=P53 Latch=I Net=char_0_IBUF
