$date
	Wed Jun  5 17:23:07 2013
$end
$version
	Icarus Verilog
$end
$timescale
	1ps
$end
$scope module control_tb $end
$scope module uut $end
$var wire 1 ! cCounter $end
$var wire 1 " cDelete $end
$var wire 1 # cEne $end
$var wire 1 $ cEnter $end
$var wire 1 % cNum $end
$var wire 1 & cVirgul $end
$var wire 1 ' clk $end
$var wire 1 ( enter $end
$var wire 1 ) new $end
$var wire 1 * reset $end
$var wire 1 + virgul $end
$var reg 1 , add $end
$var reg 1 - addEnhe $end
$var reg 1 . change $end
$var reg 1 / complete $end
$var reg 1 0 delete $end
$var reg 1 1 load $end
$var reg 3 2 next_state [2:0] $end
$upscope $end
$upscope $end
$enddefinitions $end
#0
$dumpvars
b0 2
11
00
0/
0.
0-
0,
0+
1*
0)
0(
0'
0&
0%
0$
0#
0"
0!
$end
#50000
1'
0*
#100000
01
b1 2
0'
#150000
1'
1+
1&
#200000
0'
1#
0&
#250000
1'
#300000
0'
#350000
1'
1&
#400000
0'
#450000
1'
#500000
0'
#550000
1'
0&
0#
1)
#600000
1.
1,
b10 2
0'
#650000
1'
#700000
0.
0,
b1 2
0'
#750000
1'
#800000
1.
1,
b10 2
0'
#850000
1'
1&
#900000
0.
0,
b1 2
0'
#950000
1'
#1000000
1.
1,
b100 2
0'
#1050000
1'
1!
0&
#1100000
0.
0,
b1 2
0'
#1150000
1'
#1200000
0'
#1250000
1'
1(
1$
#1300000
0'
#1350000
1'
1%
0$
#1400000
0'
#1450000
1'
#1500000
0'
#1550000
1'
1"
0%
#1600000
0'
#1650000
1'
#1700000
0'
#1750000
1'
#1800000
0'
#1850000
1'
#1900000
0'
#1950000
1'
#2000000
0'
